…
<!-- end list -->

``` r
rename(
  iris,
  sepal_length = Sepal.Length,
  sepal_width = Sepal.Width,
  petal_length = Petal.Length,
  petal_width = Petal.Width
)
```

    ## # A tibble: 150 x 5
    ##    sepal_length sepal_width petal_length petal_width Species
    ##           <dbl>       <dbl>        <dbl>       <dbl> <fct>  
    ##  1          5.1         3.5          1.4         0.2 setosa 
    ##  2          4.9         3            1.4         0.2 setosa 
    ##  3          4.7         3.2          1.3         0.2 setosa 
    ##  4          4.6         3.1          1.5         0.2 setosa 
    ##  5          5           3.6          1.4         0.2 setosa 
    ##  6          5.4         3.9          1.7         0.4 setosa 
    ##  7          4.6         3.4          1.4         0.3 setosa 
    ##  8          5           3.4          1.5         0.2 setosa 
    ##  9          4.4         2.9          1.4         0.2 setosa 
    ## 10          4.9         3.1          1.5         0.1 setosa 
    ## # ... with 140 more rows
…
3.  Calculate sepal area and petal area (area is equal to length
    multiplied by width). Print a table with only the variables sepal
    area, petal area, and species.

<!-- end list -->

``` r
iris2 <- mutate(iris,
       sepal_area = Sepal.Length * Sepal.Width,
       petal_area = Petal.Length * Petal.Width)

select(iris2, sepal_area, petal_area, Species)
```

    ## # A tibble: 150 x 3
    ##    sepal_area petal_area Species
    ##         <dbl>      <dbl> <fct>  
    ##  1       17.8      0.280 setosa 
    ##  2       14.7      0.280 setosa 
    ##  3       15.0      0.26  setosa 
    ##  4       14.3      0.3   setosa 
    ##  5       18        0.280 setosa 
    ##  6       21.1      0.68  setosa 
    ##  7       15.6      0.42  setosa 
    ##  8       17        0.3   setosa 
    ##  9       12.8      0.280 setosa 
    ## 10       15.2      0.15  setosa 
    ## # ... with 140 more rows
…
